module github.com/Seklfreak/Robyul2

require (
	cloud.google.com/go v0.34.0
	github.com/360EntSecGroup-Skylar/excelize v1.4.0 // indirect
	github.com/AlekSi/pointer v1.0.0 // indirect
	github.com/ChimeraCoder/anaconda v2.0.0+incompatible
	github.com/ChimeraCoder/tokenbucket v0.0.0-20131201223612-c5a927568de7 // indirect
	github.com/Jeffail/gabs v1.1.1
	github.com/Krognol/go-wolfram v0.0.0-20180610151123-5b91101b92a8
	github.com/PuerkitoBio/goquery v1.5.0
	github.com/RichardKnop/logging v0.0.0-20181101035820-b1d5d44c82d6 // indirect
	github.com/RichardKnop/machinery v1.5.4
	github.com/Seklfreak/lastfm-go v0.0.0-20180325112940-ff0cf6912942
	github.com/Seklfreak/polr-go v0.0.0-20180425152206-e6c594fafce8
	github.com/Unleash/unleash-client-go v0.0.0-20181121205122-ae068e0ad68c
	github.com/VojtechVitek/go-trello v0.0.0-20161023024849-28ebf2756ecc
	github.com/andybons/gogif v0.0.0-20140526152223-16d573594812
	github.com/aws/aws-sdk-go v1.16.11 // indirect
	github.com/azr/backoff v0.0.0-20160115115103-53511d3c7330 // indirect
	github.com/beefsack/go-rate v0.0.0-20180408011153-efa7637bb9b6 // indirect
	github.com/bradfitz/slice v0.0.0-20180809154707-2b758aa73013
	github.com/bwmarrin/discordgo v0.20.2
	github.com/cenkalti/backoff v2.1.0+incompatible // indirect
	github.com/certifi/gocertifi v0.0.0-20180905225744-ee1a9a0726d2 // indirect
	github.com/corona10/goimagehash v0.2.0
	github.com/davecgh/go-spew v1.1.1
	github.com/dghubble/go-twitter v0.0.0-20181218060016-7ecc41c771b6
	github.com/dghubble/oauth1 v0.5.0
	github.com/dghubble/sling v1.2.0 // indirect
	github.com/domainr/whois v0.0.0-20180714175948-975c7833b02e
	github.com/domainr/whoistest v0.0.0-20180714175718-26cad4b7c941 // indirect
	github.com/dustin/go-humanize v1.0.0
	github.com/dustin/go-jsonpointer v0.0.0-20160814072949-ba0abeacc3dc // indirect
	github.com/dustin/gojson v0.0.0-20160307161227-2e71ec9dd5ad // indirect
	github.com/dyatlov/go-oembed v0.0.0-20180429203341-4bc5ab7a42e9
	github.com/emicklei/go-restful v2.8.0+incompatible
	github.com/etdub/goparsetime v0.0.0-20160315173935-ea17b0ac3318 // indirect
	github.com/fortytw2/leaktest v1.3.0 // indirect
	github.com/garyburd/go-oauth v0.0.0-20180319155456-bca2e7f09a17 // indirect
	github.com/getsentry/raven-go v0.2.0
	github.com/globalsign/mgo v0.0.0-20181015135952-eeefdecb41b8
	github.com/go-ini/ini v1.40.0 // indirect
	github.com/go-redis/cache v6.3.5+incompatible
	github.com/go-redis/redis v6.14.2+incompatible
	github.com/google/uuid v1.1.0 // indirect
	github.com/googleapis/gax-go v2.0.2+incompatible // indirect
	github.com/gopherjs/gopherjs v0.0.0-20181103185306-d547d1d9531e // indirect
	github.com/gorilla/websocket v1.4.1 // indirect
	github.com/huandu/facebook v2.3.1+incompatible
	github.com/inconshreveable/go-keen v0.0.0-20170228023802-f7cb12356363
	github.com/json-iterator/go v1.1.5
	github.com/jtolds/gls v4.2.1+incompatible // indirect
	github.com/jzelinskie/geddit v0.0.0-20181001045958-34240685d019
	github.com/karrick/tparse/v2 v2.6.1
	github.com/kennygrant/sanitize v1.2.4
	github.com/kz/discordrus v1.1.1
	github.com/lucasb-eyer/go-colorful v0.0.0-20181028223441-12d3b2882a08
	github.com/lucazulian/cryptocomparego v0.0.0-20180707133135-0bbb5bcaed79
	github.com/mailru/easyjson v0.0.0-20180823135443-60711f1a8329 // indirect
	github.com/miekg/dns v1.1.1
	github.com/minio/minio-go v6.0.11+incompatible
	github.com/mitchellh/go-homedir v1.0.0 // indirect
	github.com/modern-go/concurrent v0.0.0-20180306012644-bacd9c7ef1dd // indirect
	github.com/modern-go/reflect2 v1.0.1 // indirect
	github.com/mohae/deepcopy v0.0.0-20170929034955-c48cc78d4826 // indirect
	github.com/mvdan/xurls v1.1.0 // indirect
	github.com/nfnt/resize v0.0.0-20180221191011-83c6a9932646
	github.com/olebedev/when v0.0.0-20171024044931-53693fbb59a8
	github.com/olivere/elastic v6.2.14+incompatible
	github.com/onsi/ginkgo v1.7.0 // indirect
	github.com/onsi/gomega v1.4.3 // indirect
	github.com/pkg/errors v0.8.0
	github.com/renstrom/fuzzysearch v1.0.1
	github.com/saintfish/chardet v0.0.0-20120816061221-3af4cd4741ca // indirect
	github.com/satori/go.uuid v1.2.0
	github.com/sethgrid/pester v0.0.0-20180430140037-03e26c9abbbf
	github.com/shawntoffel/darksky v1.2.1
	github.com/sirupsen/logrus v1.2.0
	github.com/smartystreets/assertions v0.0.0-20180927180507-b2de0cb4f26d // indirect
	github.com/smartystreets/goconvey v0.0.0-20181108003508-044398e4856c // indirect
	github.com/streadway/amqp v0.0.0-20181205114330-a314942b2fd9 // indirect
	github.com/stvp/tempredis v0.0.0-20181119212430-b82af8480203 // indirect
	github.com/ungerik/go-cairo v0.0.0-20180910143756-ed3ace63553d
	github.com/vmihailenco/msgpack v4.0.1+incompatible
	github.com/xuri/excelize v1.4.0
	github.com/zonedb/zonedb v0.0.0-20181223081958-1e4b8eea6f56 // indirect
	go4.org v0.0.0-20181109185143-00e24f1b2599 // indirect
	golang.org/x/crypto v0.0.0-20200115085410-6d4e4cb37c7d // indirect
	golang.org/x/oauth2 v0.0.0-20181203162652-d668ce993890
	golang.org/x/sync v0.0.0-20181221193216-37e7f081c4d4 // indirect
	golang.org/x/sys v0.0.0-20200113162924-86b910548bc1 // indirect
	golang.org/x/text v0.3.0
	google.golang.org/api v0.0.0-20181221000618-65a46cafb132
	google.golang.org/appengine v1.4.0 // indirect
	google.golang.org/genproto v0.0.0-20181221175505-bd9b4fb69e2f
	google.golang.org/grpc v1.17.0 // indirect
	gopkg.in/DATA-DOG/go-sqlmock.v1 v1.3.0 // indirect
	gopkg.in/ini.v1 v1.40.0 // indirect
	gopkg.in/mgo.v2 v2.0.0-20180705113604-9856a29383ce
	gopkg.in/oleiade/lane.v1 v1.0.0
	gopkg.in/yaml.v2 v2.2.2 // indirect
	mvdan.cc/xurls v1.1.0
)

go 1.13
